Independent t-test
…
---
# Example
- Example taken from Howell, D.C. (2010). *Statistical Methods for Psychology, 7th Edition*. Belmont, CA: Wadsworth Cengage Learning.

- Data from Aronson, Lustina , Good, Keough , Steele and Brown (1998). Experiment on stereotype threat.
	- Two independent groups college students (n=12 control; n=11 threat condition). 
	- Both samples excel in maths.
	- Threat group told certain students usually do better in the test

---
# Data

```
## # A tibble: 23 x 2
##    Group  Score
##    <fct>  <dbl>
##  1 Threat     7
##  2 Threat     5
##  3 Threat     6
##  4 Threat     5
##  5 Threat     6
##  6 Threat     5
##  7 Threat     4
##  8 Threat     7
##  9 Threat     4
## 10 Threat     3
## # … with 13 more rows
```
…
