One-Sample t-test
…
---

# Example
- Suppose I want to know whether the retirement age of Professors at my University is the same as the national average.

- The national average age of retirement for Prof's 65.

- So I look at the age of the last 40 Prof's that have retired at Edinburgh and compare against this value.

---

# Data

```
## # A tibble: 40 x 2
##    ID       Age
##    <chr>  <dbl>
##  1 Prof1     76
##  2 Prof2     66
##  3 Prof3     58
##  4 Prof4     68
##  5 Prof5     79
##  6 Prof6     74
##  7 Prof7     75
##  8 Prof8     50
##  9 Prof9     69
## 10 Prof10    70
## # ... with 30 more rows
```
…
