Numerical Data
…
Note that tibble() is the tidyverse name for a data.frame().

If you want to get exactly the same data as this page, this is what the set.seed(1234) bit does. It basically means that all our randomly generated numbers (the rnorm bit) are the same.

library(tidyverse)
set.seed(1234)
simdata <-
  tibble(
    id = 1:10000,
    height = rnorm(10000, mean = 178, sd = 10)
  )

simdata

## # A tibble: 10,000 x 2
##       id height
##    <int>  <dbl>
##  1     1   166.
##  2     2   181.
##  3     3   189.
##  4     4   155.
##  5     5   182.
##  6     6   183.
##  7     7   172.
##  8     8   173.
##  9     9   172.
## 10    10   169.
## # … with 9,990 more rows
…
The mode of numeric variables is not frequently used. Unlike categorical variables where there are a distinct set of possible values which the data can take, for numeric variables, data can take a many more (or infinitely many) different values. Finding the “most common” is sometimes not possible.

The most frequent value (the mode) of the iq variable is 97:

# take the "wechsler" dataframe %>%
# count() the values in the "iq" variable (creates an "n" column), and
# from there, arrange() the data so that the "n" column is descending - desc()
wechsler %>%
    count(iq) %>%
    arrange(desc(n))

## # A tibble: 53 x 2
##       iq     n
##    <dbl> <int>
##  1    97     7
##  2   108     6
##  3    92     5
##  4   103     5
##  5   105     5
##  6   110     5
##  7    85     4
##  8    99     4
##  9   107     4
## 10   113     4
## # … with 43 more rows
…
Solution 

stroopdata <- 
  stroopdata %>%
  mutate(
    stroop_effect = mismatching - matching
  )

# and print it out:
stroopdata

## # A tibble: 131 x 7
##       id   age practice matching mismatching height stroop_effect
##    <dbl> <dbl> <chr>       <dbl>       <dbl>  <dbl>         <dbl>
##  1     1    41 yes         22.3        16.9     162         -5.40
##  2     2    24 yes         22.3        19.1     168         -3.20
##  3     3    40 yes         15.4        13.6     166         -1.81
##  4     4    46 yes          9.9        15.0     165          5.14
##  5     5    36 yes         14.2        16.4     160          2.18
##  6     6    29 yes         19.9        18.0     154         -1.9 
##  7     7    45 no          10.2        17.1     179          6.83
##  8     8    44 no          16.2        19.6     162          3.39
##  9     9    47 yes          9.73        6.14    148         -3.59
## 10    10    59 no           7.68       11.6     153          3.88
## # … with 121 more rows
…
