Dealing with messy data
…
Hint:

in the tidyverse functions, you can specify all columns between column x and column z by using the colon, x:z.

Solution

(Note that this will depend on what you called your columns in the previous question - we just called them “trial_1”, … , “trial_20”).

setuplong <- 
  setupdata %>%
  pivot_longer(trial_1:trial_20, names_to = "trial_number", values_to = "video")

setuplong

## # A tibble: 460 x 3
##    sub       trial_number video                    
##    <chr>     <chr>        <chr>                    
##  1 subject_1 trial_1      /files/vids/blinks_1.mp4 
##  2 subject_1 trial_2      /files/vids/blinsk_8.mp4 
##  3 subject_1 trial_3      /files/vids/blinks_1.mp4 
##  4 subject_1 trial_4      /files/vids/blinks_5.mp4 
##  5 subject_1 trial_5      /files/vids/blinks_4.mp4 
##  6 subject_1 trial_6      /files/vids/blinks_10.mp4
##  7 subject_1 trial_7      /files/vids/blinks_1.mp4 
##  8 subject_1 trial_8      /files/vids/blinks_5.mp4 
##  9 subject_1 trial_9      /files/vids/blinks_6.mp4 
## 10 subject_1 trial_10     /files/vids/blinks_4.mp4 
## # … with 450 more rows
…
gsub("dog|cat", "horse", "I have a dog and a cat and the dogs name is Graham")

## [1] "I have a horse and a horse and the horses name is Graham"

Solution

setuplong <- setuplong %>%
  mutate(
    nr_blinks = as.numeric(gsub("/files/vids/|blinks_|blinsk_|.mp4","",video))
  )

setuplong

## # A tibble: 460 x 4
##    sub       trial_number video                     nr_blinks
##    <chr>     <chr>        <chr>                         <dbl>
##  1 subject_1 trial_1      /files/vids/blinks_1.mp4          1
##  2 subject_1 trial_2      /files/vids/blinsk_8.mp4          8
##  3 subject_1 trial_3      /files/vids/blinks_1.mp4          1
##  4 subject_1 trial_4      /files/vids/blinks_5.mp4          5
##  5 subject_1 trial_5      /files/vids/blinks_4.mp4          4
##  6 subject_1 trial_6      /files/vids/blinks_10.mp4        10
##  7 subject_1 trial_7      /files/vids/blinks_1.mp4          1
##  8 subject_1 trial_8      /files/vids/blinks_5.mp4          5
##  9 subject_1 trial_9      /files/vids/blinks_6.mp4          6
## 10 subject_1 trial_10     /files/vids/blinks_4.mp4          4
## # … with 450 more rows
…
