Collecting data
…
Suppose we read some data into R:

library(tidyverse)
starwars2 <- read_csv("https://uoepsy.github.io/data/starwars2.csv")

Reading data from a URL

Note that when you have a url for some data, such as https://uoepsy.github.io/data/starwars2.csv, you can read it in directly by giving functions like read_csv() the url inside quotation marks.

The data contains information on various characteristics of characters from Star Wars.
We can print out the top of the data by using the name we just gave it:

starwars2

## # A tibble: 75 x 6
##    name               height hair_color    eye_color homeworld species
##    <chr>               <dbl> <chr>         <chr>     <chr>     <chr>  
##  1 Luke Skywalker        172 blond         blue      Tatooine  Human  
##  2 C-3PO                 167 <NA>          yellow    Tatooine  Human  
##  3 R2-D2                  96 <NA>          red       Naboo     Droid  
##  4 Darth Vader           202 none          yellow    Tatooine  Human  
##  5 Leia Organa           150 brown         brown     Alderaan  Human  
##  6 Owen Lars             178 brown, grey   blue      Tatooine  Human  
##  7 Beru Whitesun lars    165 brown         blue      Tatooine  Human  
##  8 R5-D4                  97 <NA>          red       Tatooine  Droid  
##  9 Biggs Darklighter     183 black         brown     Tatooine  Human  
## 10 Obi-Wan Kenobi        182 auburn, white blue-gray Stewjon   Human  
## # … with 65 more rows
…
If we leave either rows or columns blank, then we will get out all of them:

# tenth row, all columns:
starwars2[10, ]

## # A tibble: 1 x 6
##   name           height hair_color    eye_color homeworld species
##   <chr>           <dbl> <chr>         <chr>     <chr>     <chr>  
## 1 Obi-Wan Kenobi    182 auburn, white blue-gray Stewjon   Human

# all rows, 2nd column:
starwars2[ , 2]

## # A tibble: 75 x 1
##    height
##     <dbl>
##  1    172
##  2    167
##  3     96
##  4    202
##  5    150
##  6    178
##  7    165
##  8     97
##  9    183
## 10    182
## # … with 65 more rows
…
starwars2[c(35,75), ]

## # A tibble: 2 x 6
##   name          height hair_color eye_color homeworld   species
##   <chr>          <dbl> <chr>      <chr>     <chr>       <chr>  
## 1 Marge Simpson    1.7 Blue       <NA>      Springfield unknown
## 2 Homer Simpson    1.8 <NA>       <NA>      Springfield unknown

We can remove a certain row(s) by using a minus sign - inside the square brackets

# everything minus the 75th row
starwars2[-75, ]

## # A tibble: 74 x 6
##    name               height hair_color    eye_color homeworld species 
##    <chr>               <dbl> <chr>         <chr>     <chr>     <chr>   
##  1 Luke Skywalker       1.72 blond         blue      Tatooine  Human   
##  2 C-3PO                1.67 <NA>          yellow    Tatooine  Droid   
##  3 R2-D2                0.96 <NA>          red       Naboo     Nabooian
##  4 Darth Vader          2.02 none          yellow    Tatooine  Human   
##  5 Leia Organa          1.5  brown         brown     Alderaan  Human   
##  6 Owen Lars            1.78 brown, grey   blue      Tatooine  Human   
##  7 Beru Whitesun lars   1.65 brown         blue      Tatooine  Human   
##  8 R5-D4                0.97 <NA>          red       Tatooine  Droid   
##  9 Biggs Darklighter    1.83 black         brown     Tatooine  Human   
## 10 Obi-Wan Kenobi       1.82 auburn, white blue-gray Stewjon   Human   
## # … with 64 more rows

# everything minus the (35th and 75th rows)
starwars2[-c(35, 75), ]

## # A tibble: 73 x 6
##    name               height hair_color    eye_color homeworld species 
##    <chr>               <dbl> <chr>         <chr>     <chr>     <chr>   
##  1 Luke Skywalker       1.72 blond         blue      Tatooine  Human   
##  2 C-3PO                1.67 <NA>          yellow    Tatooine  Droid   
##  3 R2-D2                0.96 <NA>          red       Naboo     Nabooian
##  4 Darth Vader          2.02 none          yellow    Tatooine  Human   
##  5 Leia Organa          1.5  brown         brown     Alderaan  Human   
##  6 Owen Lars            1.78 brown, grey   blue      Tatooine  Human   
##  7 Beru Whitesun lars   1.65 brown         blue      Tatooine  Human   
##  8 R5-D4                0.97 <NA>          red       Tatooine  Droid   
##  9 Biggs Darklighter    1.83 black         brown     Tatooine  Human   
## 10 Obi-Wan Kenobi       1.82 auburn, white blue-gray Stewjon   Human   
## # … with 63 more rows
…
starwars2 <- starwars2[-c(35, 75), ]

(now, in the environment pane of Rstudio, the object named “starwars2” will say 73 observations, rather than 75, which it had before - we’ve removed the 2 rows)

The same logic applies for columns:

# Create a new object called "anonymous_starwars2" and assign it 
# to the values which are the "starwars2" dataframe minus the 
# 1st column (the "name" column):
anonymous_starwars2 <- starwars2[, -1]

# print out anonymous_starwars2
anonymous_starwars2

## # A tibble: 73 x 5
##    height hair_color    eye_color homeworld species 
##     <dbl> <chr>         <chr>     <chr>     <chr>   
##  1   1.72 blond         blue      Tatooine  Human   
##  2   1.67 <NA>          yellow    Tatooine  Droid   
##  3   0.96 <NA>          red       Naboo     Nabooian
##  4   2.02 none          yellow    Tatooine  Human   
##  5   1.5  brown         brown     Alderaan  Human   
##  6   1.78 brown, grey   blue      Tatooine  Human   
##  7   1.65 brown         blue      Tatooine  Human   
##  8   0.97 <NA>          red       Tatooine  Droid   
##  9   1.83 black         brown     Tatooine  Human   
## 10   1.82 auburn, white blue-gray Stewjon   Human   
## # … with 63 more rows
…
Question 3

Read in the data from the link (https://uoepsy.github.io/data/passworddata.csv).

You may notice that the url ends with .csv. This means we can use the read_csv() function to read it into R.

Be sure to assign it a name, otherwise it will just print it out, and not store it in R’s environment!

Solution 

pwords <- read_csv("https://uoepsy.github.io/data/passworddata.csv")
pwords

## # A tibble: 500 x 6
##     rank password type                cracked strength strength_cat
##    <dbl> <chr>    <chr>                 <dbl>    <dbl> <chr>       
##  1     1 password password-related       6.91        8 medium      
##  2     2 123456   simple-alphanumeric   18.5         4 weak        
##  3     3 12345678 simple-alphanumeric    1.29        4 weak        
##  4     4 1234     simple-alphanumeric   11.1         4 weak        
##  5     5 qwerty   simple-alphanumeric    3.72        8 medium      
##  6     6 12345    simple-alphanumeric    1.85        4 weak        
##  7     7 dragon   animal                 3.72        8 medium      
##  8     8 baseball sport                  6.91        4 weak        
##  9     9 football sport                  6.91        7 medium      
## 10    10 letmein  password-related       3.19        8 medium      
## # … with 490 more rows
…
Access all the data for passwords categorised as “fluffy,” and assign them to a new object called fluffy_passwords

Solution 

# "In the pwords dataframe, give me all the rows for which the
# condition pwords$type=="fluffy" is TRUE, and give me all the columns."
# assign them as a new object called "fluffy_passwords"
fluffy_passwords <- pwords[pwords$type=="fluffy", ]

We can now look at our new object by printing it:

fluffy_passwords

## # A tibble: 44 x 6
##     rank password type   cracked strength strength_cat
##    <dbl> <chr>    <fct>    <dbl>    <dbl> <chr>       
##  1    42 love     fluffy    7.92        6 medium      
##  2    43 sunshine fluffy    6.91        9 medium      
##  3    54 silver   fluffy    3.72        8 medium      
##  4    63 orange   fluffy    3.72        8 medium      
##  5    70 ginger   fluffy    3.72        7 medium      
##  6    73 summer   fluffy    3.72        6 medium      
##  7    83 princess fluffy    6.91        8 medium      
##  8    88 diamond  fluffy    3.19        8 medium      
##  9    89 yellow   fluffy    3.72        6 medium      
## 10    99 iloveyou fluffy    6.91        9 medium      
## # … with 34 more rows
…
## # A tibble: 2 x 6
##    rank password type   cracked strength strength_cat
##   <dbl> <chr>    <fct>    <dbl>    <dbl> <ord>       
## 1    42 love     fluffy    7.92        6 medium      
## 2    43 sunshine fluffy    6.91        9 medium

Solution 

# "In the pwords dataframe, give me all the rows for which
# either of the conditions pwords$type=="animal" OR pwords$type=="sport" is TRUE, 
# and give me all the columns."
pwords[(pwords$type == "animal") | (pwords$type == "sport"), ]

## # A tibble: 66 x 6
##     rank password type   cracked strength strength_cat
##    <dbl> <chr>    <fct>    <dbl>    <dbl> <ord>       
##  1     7 dragon   animal    3.72        8 medium      
##  2     8 baseball sport     6.91        4 weak        
##  3     9 football sport     6.91        7 medium      
##  4    11 monkey   animal    3.72        8 medium      
##  5    32 soccer   sport     3.72        6 medium      
##  6    37 hockey   sport     3.72        8 medium      
##  7    56 dallas   sport     3.72        5 medium      
##  8    57 yankees  sport     3.19        7 medium      
##  9    81 golfer   sport     3.72        8 medium      
## 10    90 bigdog   animal    3.72        7 medium      
## # … with 56 more rows
…
using == to set the condition where the “type” variable equal to (==) “fluffy,” and putting the not (!) around it.

They will both do the same thing:

# "In the pwords dataframe, give me all the rows for which the
# condition pwords$type!="fluffy" is TRUE,
# and give me all the columns."
pwords[pwords$type != "fluffy", ]

# "In the pwords dataframe, give me all the rows for which the
# condition pwords$type=="fluffy" is FALSE,
# and give me all the columns."
pwords[!(pwords$type == "fluffy"), ]

## # A tibble: 456 x 6
##     rank password type                cracked strength strength_cat
##    <dbl> <chr>    <fct>                 <dbl>    <dbl> <ord>       
##  1     1 password password-related       6.91        8 medium      
##  2     2 123456   simple-alphanumeric   18.5         4 weak        
##  3     3 12345678 simple-alphanumeric    1.29        4 weak        
##  4     4 1234     simple-alphanumeric   11.1         4 weak        
##  5     5 qwerty   simple-alphanumeric    3.72        8 medium      
##  6     6 12345    simple-alphanumeric    1.85        4 weak        
##  7     7 dragon   animal                 3.72        8 medium      
##  8     8 baseball sport                  6.91        4 weak        
##  9     9 football sport                  6.91        7 medium      
## 10    10 letmein  password-related       3.19        8 medium      
## # … with 446 more rows
