Categorical data
…
Variable Name
Description

participant
Subject identifier

area
Respondent’s sub-discpline of psychology

First, we read our data in to R and store it in an object called “psych_disciplines”:

psych_disciplines <- read_csv("https://uoepsy.github.io/data/psych_survey.csv")
psych_disciplines

## # A tibble: 74 x 2
##    participant   area                  
##    <chr>         <chr>                 
##  1 respondent_1  Differential          
##  2 respondent_2  Social                
##  3 respondent_3  Differential          
##  4 respondent_4  Social                
##  5 respondent_5  Differential          
##  6 respondent_6  Differential          
##  7 respondent_7  Language              
##  8 respondent_8  Language              
##  9 respondent_9  Cognitive Neuroscience
## 10 respondent_10 Language              
## # … with 64 more rows
…
participant
Subject identifier

happiness
Respondent’s level of happiness from 1 to 5

job_sat
Respondent’s level of job satisfaction from 1 to 5

psych_survey <- read_csv("https://uoepsy.github.io/data/psych_survey2.csv")
psych_survey

## # A tibble: 74 x 3
##    participant   happiness job_sat
##    <chr>             <dbl>   <dbl>
##  1 respondent_1          3       3
##  2 respondent_2          3       4
##  3 respondent_3          2       5
##  4 respondent_4          4       5
##  5 respondent_5          3       5
##  6 respondent_6          4       4
##  7 respondent_7          4       2
##  8 respondent_8          5       5
##  9 respondent_9          1       5
## 10 respondent_10         3       4
## # … with 64 more rows
…
