Visualising and describing relationships
…
To calculate the average number of cyclists in each hour of the day, we want to:
1. group by the hour of the day
2. calculate the average of the numbers of cyclists for each hour

Tip: we can use arrange(somevariable) order our data from smallest to largest according to “somevariable”, and by adding in desc() too, we can go from largest to smallest!

mm_walk %>%
  group_by(hour) %>%
  summarise(
    avg_cyclists = mean(cyclists)
  ) %>%
  arrange(desc(avg_cyclists))

## # A tibble: 24 x 2
##    hour  avg_cyclists
##    <fct>        <dbl>
##  1 17           144. 
##  2 8            139. 
##  3 18           113. 
##  4 16           108. 
##  5 9            104. 
##  6 15            84.2
##  7 13            76.6
##  8 14            76.0
##  9 19            71.0
## 10 12            69.2
## # … with 14 more rows
…
