Discrete random variables
…
Check if the two requirements of probability functions are met:

Are all probabilities between 0 and 1?

Do the probabilities sum to 1?

Solution 

experiment <- expand_grid(die1 = 1:6,
                          die2 = 1:6)
experiment

## # A tibble: 36 x 2
##     die1  die2
##    <int> <int>
##  1     1     1
##  2     1     2
##  3     1     3
##  4     1     4
##  5     1     5
##  6     1     6
##  7     2     1
##  8     2     2
##  9     2     3
## 10     2     4
## # … with 26 more rows

experiment <- experiment %>%
    mutate(
        prob = rep( 1/n(), n() )
    )
experiment

## # A tibble: 36 x 3
##     die1  die2   prob
##    <int> <int>  <dbl>
##  1     1     1 0.0278
##  2     1     2 0.0278
##  3     1     3 0.0278
##  4     1     4 0.0278
##  5     1     5 0.0278
##  6     1     6 0.0278
##  7     2     1 0.0278
##  8     2     2 0.0278
##  9     2     3 0.0278
## 10     2     4 0.0278
## # … with 26 more rows
…
