Sampling distributions
…
samples is how many samples of size \(n\) you want to take

Before doing anything involving random sampling, it is good practice to set the random seed. This is to ensure reproducibility of the results.
Random number generation in R works by specifying a starting seed, and then numbers are generated starting from there.

Set the random seed to any number you wish. Depending on the number, you will get the same results as me or not:

set.seed(1234)

Obtain 12 samples of \(n = 6\) individuals each:

samples <- rep_sample_n(gest, n = 6, samples = 12)
samples

## # A tibble: 72 x 3
##    sample    id gest_period
##     <dbl> <dbl>       <dbl>
##  1      1 40784        255.
##  2      1 40854        275.
##  3      1 41964        281.
##  4      1 15241        246.
##  5      1 33702        247.
##  6      1 35716        267.
##  7      2 17487        289.
##  8      2 15220        266.
##  9      2 19838        238.
## 10      2  2622        281.
## # … with 62 more rows
…
Extract from the hollywood tibble the three variables of interest (Movie, Genre, Budget) and keep the movies for which we have all information (no missing entries).

Hint: Check the help page for the function drop_na() or na.omit().

Solution 

We can extract variables using the function select(), while to keep the rows for which we have all measurements we use na.omit():

hollywood <- hollywood %>%
  select(Movie, Genre, Budget) %>%
  drop_na()

hollywood

## # A tibble: 665 x 3
##    Movie                                     Genre     Budget
##    <chr>                                     <chr>      <dbl>
##  1 Spider-Man 3                              Action       258
##  2 Shrek the Third                           Animation    160
##  3 Transformers                              Action       150
##  4 Pirates of the Caribbean: At World's End  Action       300
##  5 Harry Potter and the Order of the Phoenix Adventure    150
##  6 I Am Legend                               Thriller     150
##  7 The Bourne Ultimatum                      Thriller     110
##  8 National Treasure: Book of Secrets        Thriller     130
##  9 Alvin and the Chipmunks                   Animation     70
## 10 300                                       Action        65
## # … with 655 more rows
…
