Confidence Intervals & Bootstrapping
…
and so on…

The bootstrap distribution

If we resample with replacement from our original sample enough times, then the distribution of all the means of these resamples begins to approximate the sampling distribution.

We can speed up this process by getting R to take many resamples for us, in the same way that last week we asked it to take many samples from a population at the end of the previous semester, using rep_sample_n() and group_by():

rep_sample_n(nfl_sample, n = 50, samples = 2000, replace = TRUE) %>%
  group_by(sample) %>%
  summarise(avg_salary = mean(YearlySalary))

## # A tibble: 2,000 x 2
##    sample avg_salary
##     <dbl>      <dbl>
##  1      1       4.79
##  2      2       4.97
##  3      3       4.42
##  4      4       3.09
##  5      5       3.96
##  6      6       3.99
##  7      7       4.47
##  8      8       2.54
##  9      9       2.89
## 10     10       4.66
## # … with 1,990 more rows
…
