Hypothesis testing: the p-value approach
…
We notice that the Leniency scores are the same, but the group assignment was changed.

We can generate many more randomized samples, 1000 for example, as follows

rand_samples <- rep_randomize(smiles, columns = 'Group', samples = 1000)
rand_samples

## # A tibble: 68,000 x 3
##    sample Leniency Group  
##     <dbl>    <dbl> <fct>  
##  1      1      7   neutral
##  2      1      3   smile  
##  3      1      6   smile  
##  4      1      4.5 smile  
##  5      1      3.5 neutral
##  6      1      4   smile  
##  7      1      3   neutral
##  8      1      3   smile  
##  9      1      3.5 neutral
## 10      1      4.5 neutral
## # … with 67,990 more rows

which will have 68000 rows = 68 (rows of the original data) * 1000 (number of samples). The more samples you generate, the more precise the analysis will be. When publishing papers, you might typically want 10,000 or 100,000 samples!

We can now compute the difference in mean leniency scores for each sample:

null_dist <- rand_samples %>%
  group_by(sample, Group) %>%
  summarise(M = mean(Leniency)) %>%
  group_by(sample) %>%
  summarise(D = diff(M))
null_dist

## # A tibble: 1,000 x 2
##    sample       D
##     <dbl>   <dbl>
##  1      1  0.441 
##  2      2 -0.0882
##  3      3 -0.0882
##  4      4  0.294 
##  5      5 -0.529 
##  6      6 -0.706 
##  7      7 -0.118 
##  8      8  0.5   
##  9      9 -0.382 
## 10     10 -0.0294
## # … with 990 more rows
…
