Hypothesis testing: the critical values approach
…
First, we need to load the rep_randomize function:

source("https://uoepsy.github.io/files/rep_randomize.R")

For reproducibility, I will fix the random number generator seed, so that when I run again the entire file from start to finish I will get the same results.

set.seed(368)

Next, I will generate 1000 randomization samples. Each of such samples will be of size \(n = 68\) in which the group assignment has been shuffled.

rand_samples <- rep_randomize(smiles, columns = 'Group', samples = 1000)
rand_samples

## # A tibble: 68,000 x 3
##    sample Leniency Group  
##     <dbl>    <dbl> <fct>  
##  1      1      7   neutral
##  2      1      3   neutral
##  3      1      6   neutral
##  4      1      4.5 smile  
##  5      1      3.5 smile  
##  6      1      4   neutral
##  7      1      3   smile  
##  8      1      3   smile  
##  9      1      3.5 smile  
## 10      1      4.5 smile  
## # … with 67,990 more rows

The table above has 1,000 * 68 = 68,000 rows.

Then, for each randomization sample, we need to compute the difference in mean leniency score for the smiling and non-smiling students.

null_dist <- rand_samples %>%
  group_by(sample, Group) %>%
  summarise(M = mean(Leniency)) %>%
  group_by(sample) %>%
  summarise(D = diff(M))

null_dist

## # A tibble: 1,000 x 2
##    sample       D
##     <dbl>   <dbl>
##  1      1 -0.0588
##  2      2 -0.265 
##  3      3  0.0294
##  4      4 -0.265 
##  5      5 -0.0882
##  6      6 -0.0294
##  7      7 -0.265 
##  8      8  0.235 
##  9      9 -0.235 
## 10     10  0.294 
## # … with 990 more rows
…
