Connecting confidence intervals and hypothesis testing
…
Visualise the distribution of exercise hours by dominant hand. First, let’s add a column with the mean of each group so that we can show the mean as a vertical green line.

exdata_plot <- exdata %>%
    group_by(hand) %>% 
    mutate(avg_exercise = mean(exercise))

exdata_plot

## # A tibble: 50 x 3
## # Groups:   hand [2]
##    hand  exercise avg_exercise
##    <fct>    <dbl>        <dbl>
##  1 l           15         9.11
##  2 l           20         9.11
##  3 r            2        10.9 
##  4 l           10         9.11
##  5 r            8        10.9 
##  6 r           14        10.9 
##  7 l            2         9.11
##  8 r           14        10.9 
##  9 r           10        10.9 
## 10 l           12         9.11
## # … with 40 more rows
…
We will also specify the number of samples we want to obtain, 1000 say (you could do more if you wish to have more precision).

num_samples <- 1000

Then we will start by focusing on the left-handed students:

l_means <- exdata %>%
    filter(hand == 'l') %>%
    rep_sample_n(n = nrow(.), samples = num_samples, replace = TRUE) %>%
    group_by(hand, sample) %>%
    summarise(avg = mean(exercise))
l_means

## # A tibble: 1,000 x 3
## # Groups:   hand [1]
##    hand  sample   avg
##    <fct>  <dbl> <dbl>
##  1 l          1  5.44
##  2 l          2  7.11
##  3 l          3  5.89
##  4 l          4 10.3 
##  5 l          5  6.22
##  6 l          6  9.56
##  7 l          7  5.67
##  8 l          8  9.67
##  9 l          9 10.1 
## 10 l         10  6.44
## # … with 990 more rows

Now, for the right-handed students:

r_means <- exdata %>%
    filter(hand == 'r') %>%
    rep_sample_n(n = nrow(.), samples = num_samples, replace = TRUE) %>%
    group_by(hand, sample) %>%
    summarise(avg = mean(exercise))
r_means

## # A tibble: 1,000 x 3
## # Groups:   hand [1]
##    hand  sample   avg
##    <fct>  <dbl> <dbl>
##  1 r          1 12.9 
##  2 r          2  9.37
##  3 r          3 10.4 
##  4 r          4 11.3 
##  5 r          5 11.8 
##  6 r          6 11.8 
##  7 r          7  8.56
##  8 r          8 12.5 
##  9 r          9  8.61
## 10 r         10  9.02
## # … with 990 more rows

Finally, we combine the means of the left-handed and right-handed students:

all_means <- bind_rows(l_means, r_means) %>%
    pivot_wider(names_from = hand, values_from = avg, names_prefix = "avg_")
all_means

## # A tibble: 1,000 x 3
##    sample avg_l avg_r
##     <dbl> <dbl> <dbl>
##  1      1  5.44 12.9 
##  2      2  7.11  9.37
##  3      3  5.89 10.4 
##  4      4 10.3  11.3 
##  5      5  6.22 11.8 
##  6      6  9.56 11.8 
##  7      7  5.67  8.56
##  8      8  9.67 12.5 
##  9      9 10.1   8.61
## 10     10  6.44  9.02
## # … with 990 more rows
…
ID Mean_I Mean_W
1  6      3
2  3      1

To go from long to wide, use pivot_wider, provide the column which gives the names: names_from = Recall, where the values come from: values_from = Mean, and give a better name to the columns otherwise it would be just I and W, so we do names_prefix = “Mean_.”

To go from wide to long, we use pivot_longer. You should provide which columns to collapse, how to call the column with the group labels: names_to = “Recall,” and how to call the column with the values: values_to = “Mean”

Let’s now compute the difference between the mean for right-handed students and left-handed students:

boot_dist <- all_means %>%
    mutate(diff = avg_r - avg_l)
boot_dist

## # A tibble: 1,000 x 4
##    sample avg_l avg_r   diff
##     <dbl> <dbl> <dbl>  <dbl>
##  1      1  5.44 12.9   7.48 
##  2      2  7.11  9.37  2.25 
##  3      3  5.89 10.4   4.55 
##  4      4 10.3  11.3   0.984
##  5      5  6.22 11.8   5.53 
##  6      6  9.56 11.8   2.25 
##  7      7  5.67  8.56  2.89 
##  8      8  9.67 12.5   2.80 
##  9      9 10.1   8.61 -1.50 
## 10     10  6.44  9.02  2.58 
## # … with 990 more rows
…
Question 2

Using rep_sample_n(), compute 1,000 resample means for left-handed students using the shifted exercise column.

Solution 

l_means <- l_data %>%
    rep_sample_n(n = nrow(.), samples = num_samples, replace = TRUE) %>%
    group_by(hand, sample) %>%
    summarise(avg = mean(exercise))
l_means

## # A tibble: 1,000 x 3
## # Groups:   hand [1]
##    hand  sample   avg
##    <fct>  <dbl> <dbl>
##  1 l          1 10.3 
##  2 l          2 13.8 
##  3 l          3 10.8 
##  4 l          4  9.04
##  5 l          5 15.6 
##  6 l          6 12.3 
##  7 l          7 10.9 
##  8 l          8  8.82
##  9 l          9  7.37
## 10 l         10 12.6 
## # … with 990 more rows
…
Using rep_sample_n(), compute 1,000 resample means for right-handed students.

Solution 

r_data <- exdata %>%
    filter(hand == 'r')

r_means <- r_data %>%
    rep_sample_n(n = nrow(.), samples = num_samples, replace = TRUE) %>%
    group_by(hand, sample) %>%
    summarise(avg = mean(exercise))
r_means

## # A tibble: 1,000 x 3
## # Groups:   hand [1]
##    hand  sample   avg
##    <fct>  <dbl> <dbl>
##  1 r          1  12.6
##  2 r          2  10.9
##  3 r          3  11.1
##  4 r          4  10.8
##  5 r          5  11.3
##  6 r          6  10.2
##  7 r          7  10.5
##  8 r          8  11.3
##  9 r          9  14.8
## 10 r         10  12.1
## # … with 990 more rows

Combine

Question 4

Combine the left-handed and right-handed means into a single tibble.

Solution 

all_means <- bind_rows(l_means, r_means) %>%
    pivot_wider(names_from = hand, values_from = avg, names_prefix = "avg_")
all_means

## # A tibble: 1,000 x 3
##    sample avg_l avg_r
##     <dbl> <dbl> <dbl>
##  1      1 10.3   12.6
##  2      2 13.8   10.9
##  3      3 10.8   11.1
##  4      4  9.04  10.8
##  5      5 15.6   11.3
##  6      6 12.3   10.2
##  7      7 10.9   10.5
##  8      8  8.82  11.3
##  9      9  7.37  14.8
## 10     10 12.6   12.1
## # … with 990 more rows

Question 5

Compute the difference between the mean for right-handed students and left-handed students.

Solution 

null_dist <- all_means %>%
    mutate(diff = avg_r - avg_l)
null_dist

## # A tibble: 1,000 x 4
##    sample avg_l avg_r   diff
##     <dbl> <dbl> <dbl>  <dbl>
##  1      1 10.3   12.6  2.35 
##  2      2 13.8   10.9 -2.94 
##  3      3 10.8   11.1  0.282
##  4      4  9.04  10.8  1.72 
##  5      5 15.6   11.3 -4.30 
##  6      6 12.3   10.2 -2.02 
##  7      7 10.9   10.5 -0.415
##  8      8  8.82  11.3  2.48 
##  9      9  7.37  14.8  7.43 
## 10     10 12.6   12.1 -0.472
## # … with 990 more rows
…
