Independent samples t-test
…
At a 5% significance level, the observed difference in mean number of close friends between adult American females and males is significantly different from 0 (\(t(1465) = 2.45\), \(p = 0.01\), two-tailed).

In other words, an observed difference in sample mean number of close friends of 0.23 is highly unlikely to occur by chance alone.

The sample data provide very strong evidence that, on average, adult American females and males tend to not have the same number of close friends.

If you want to visualise where the observed t-statistic lies on the t-distribution, as well as the critical values (in red), you can use the following code:

plot_x <- seq(-3, 3, by = 0.01)
plot_y <- dt(plot_x, df = n_f + n_m - 2)
plot_df <- tibble(plot_x, plot_y)
plot_df

## # A tibble: 601 x 2
##    plot_x  plot_y
##     <dbl>   <dbl>
##  1  -3    0.00448
##  2  -2.99 0.00461
##  3  -2.98 0.00475
##  4  -2.97 0.00490
##  5  -2.96 0.00504
##  6  -2.95 0.00519
##  7  -2.94 0.00535
##  8  -2.93 0.00551
##  9  -2.92 0.00567
## 10  -2.91 0.00584
## # … with 591 more rows
…
