Paired sample t-test
…
# equivalent
# t.test(ace_score ~ age, paired = TRUE, data = acedata_long)

There you go!!! Now R did ace_70 - ace_60.

Converting back to wide format

acedata_long %>%
    pivot_wider(names_from = age, values_from = ace_score)

## # A tibble: 25 x 4
##    participant diff_score ace_60 ace_70
##    <chr>            <dbl>  <dbl>  <dbl>
##  1 sub1                -8     93     85
##  2 sub2                -3     95     92
##  3 sub3                -3     93     90
##  4 sub4                 2     93     95
##  5 sub5                -8     96     88
##  6 sub6                -6     91     85
##  7 sub7                -2     94     92
##  8 sub8                 0     90     90
##  9 sub9                 2     90     92
## 10 sub10               -5     96     91
## # … with 15 more rows
…
