Bootstrap for regression
…
While this shows you the estimated intercept and slope in the original sample

boot_mdl$t0

##       (Intercept) science_knowledge               age 
##       2.788248712      -0.080276256       0.002379446

You can visualise the uncertainty in the estimates by plotting histograms either manually:

plot_data <- as_tibble(boot_mdl$t)
plot_data

## # A tibble: 999 x 3
##    `(Intercept)` science_knowledge      age
##            <dbl>             <dbl>    <dbl>
##  1          2.86           -0.0795 0.000930
##  2          2.73           -0.0751 0.00244 
##  3          2.79           -0.0803 0.00254 
##  4          2.75           -0.0763 0.00248 
##  5          2.91           -0.0917 0.00128 
##  6          2.80           -0.0789 0.00209 
##  7          2.76           -0.0803 0.00311 
##  8          2.75           -0.0787 0.00308 
##  9          2.69           -0.0733 0.00286 
## 10          2.77           -0.0795 0.00259 
## # … with 989 more rows
…
