Binary Logistic Regression
…
Figure 3: The sigmoid curve

The reason we have to do something different is because for our actual observations, the event has either happened or it hasn’t. So we can’t take the raw data as “probabilities” which we can translate into log-odds. We can try, but it doesn’t make sense, and we would just be trying to fit some line between infinity and negative infinity. This would mean the residuals would also all be infinity, and so it becomes impossible to work out anything!

drunkdoor %>% 
  mutate(
    notice_odds = notice/(1-notice),
    notice_logodds = log(notice_odds)
  )

## # A tibble: 120 x 7
##    id        bac   age condition notice notice_odds notice_logodds
##    <chr>   <dbl> <dbl> <chr>      <dbl>       <dbl>          <dbl>
##  1 ID1   0.0674     43 Low            1         Inf            Inf
##  2 ID2   0.00331    64 Low            0           0           -Inf
##  3 ID3   0.00323    44 Low            1         Inf            Inf
##  4 ID4   0.0798     67 High           0           0           -Inf
##  5 ID5   0.0668     62 High           0           0           -Inf
##  6 ID6   0.0155     45 Low            1         Inf            Inf
##  7 ID7   0.00113    50 High           0           0           -Inf
##  8 ID8   0.0511     45 High           0           0           -Inf
##  9 ID9   0.00314    48 High           0           0           -Inf
## 10 ID10  0.0416     61 Low            0           0           -Inf
## # … with 110 more rows
…
