Sample Size and Power Analysis
…
Then, for each value in that sequence, we want to apply some computation. The computation is defined in

map_dbl(es, 
        ~ pwr.f2.test(u = 2, f2 = .x, sig.level = 0.05, power = 0.9)$v)

This takes each element of es, one at a time, and then passes it to the computation specified afterwards, into the slot .x. Then, function pwr.f2.test is applied and we want to extract the value of v.

es_curve <- tibble(
    es = seq(.1, .9, .01),
    v = map_dbl(es, 
                ~ pwr.f2.test(u = 2, f2 = .x, sig.level = 0.05, power = 0.9)$v)
)
es_curve

## # A tibble: 81 x 2
##       es     v
##    <dbl> <dbl>
##  1  0.1  127. 
##  2  0.11 115. 
##  3  0.12 106. 
##  4  0.13  97.4
##  5  0.14  90.5
##  6  0.15  84.4
##  7  0.16  79.2
##  8  0.17  74.5
##  9  0.18  70.4
## 10  0.19  66.7
## # … with 71 more rows

Now, we want to compute \(n\) from v, using \(n - K - 1 = \texttt v\) so that \(n = \texttt v + K + 1\):

es_curve <- es_curve %>%
    mutate(n = v + 6 + 1)
es_curve

## # A tibble: 81 x 3
##       es     v     n
##    <dbl> <dbl> <dbl>
##  1  0.1  127.  134. 
##  2  0.11 115.  122. 
##  3  0.12 106.  113. 
##  4  0.13  97.4 104. 
##  5  0.14  90.5  97.5
##  6  0.15  84.4  91.4
##  7  0.16  79.2  86.2
##  8  0.17  74.5  81.5
##  9  0.18  70.4  77.4
## 10  0.19  66.7  73.7
## # … with 71 more rows
…
